[

    {
        "nom" : "Pain complet",
        "url" : "../img/pain-complet.jpg",
        "IG" : "77"
    },
    {
        "nom" : "Frites",
        "url" : "../img/frite.jpg",
        "IG" : "75"
    },
    {
        "nom" : "Ananas",
        "url" : "../img/Ananas.jpeg",
        "IG" : "66"
    },
    {
        "nom" : "Chips",
        "url" : "../img/chips.jpg",
        "IG" : "55"
    },
    {
        "nom" : "Lait",
        "url" : "../img/lait.jpg",
        "IG" : "30"
    },
    {
        "nom" : "Pâtes",
        "url" : "../img/pate.jpg",
        "IG" : "50"
    },
    {
        "nom" : "Pain",
        "url" : "../img/pain.jpg",
        "IG" : "70"
    },
    {
        "nom" : "Cerises",
        "url" : "../img/Cerise.jpg",
        "IG" : "23"
    },
    {
        "nom" : "Légumes verts",
        "url" : "../img/LégumesVert.jpg",
        "IG" : "10"
    },
    {
        "nom" : "Pamplemousse",
        "url" : "../img/Pamplemousse.jpeg",
        "IG" : "25"
    }
]